@startuml
skinparam theme rose
skinparam dpi 300

Application -> WrapperFacade: method()

WrapperFacade -> ApiFunctionA: functionA()
ApiFunctionA -[dashed]-> WrapperFacade

WrapperFacade -> ApiFunctionB: functionB()
ApiFunctionB -[dashed]-> WrapperFacade

WrapperFacade -[dashed]-> Application

@enduml

